FinistR 2019: Intelligence des dragons
…
La modèle qui contient bodyLength n’est pas significativement différent du modèle qui ne le contient pas.

Notes

ML / REML

Par défaut, lmer() va optimiser REML et non pas ML. Cependant, lorsqu’on fait anova() entre deux modèles, ceux-ci sont recalculés pour être optimisés selon ML.

Prédiction

augment(model_nested, dragons)

# A tibble: 480 x 15
   testScore bodyLength mountainRange site  .fitted .resid   .hat
       <dbl>      <dbl> <fct>         <fct>   <dbl>  <dbl>  <dbl>
 1     16.1        166. Bavarian      a        20.8  -4.62 0.0426
 2     33.9        168. Bavarian      a        20.9  13.0  0.0412
 3      6.04       166. Bavarian      a        20.8 -14.8  0.0424
 4     18.8        168. Bavarian      a        20.9  -2.04 0.0411
 5     33.9        170. Bavarian      a        21.0  12.9  0.0401
 6     47.0        169. Bavarian      a        20.9  26.1  0.0406
 7      2.56       170. Bavarian      a        21.0 -18.4  0.0402
 8      3.88       164. Bavarian      a        20.7 -16.8  0.0436
 9      3.60       168. Bavarian      a        20.9 -17.3  0.0412
10      7.36       180. Bavarian      a        21.5 -14.1  0.0415
# … with 470 more rows, and 8 more variables: .cooksd <dbl>,
#   .fixed <dbl>, .mu <dbl>, .offset <dbl>, .sqrtXwt <dbl>,
#   .sqrtrwt <dbl>, .weights <dbl>, .wtres <dbl>
…
